Reproducible computation at scale in R
…
## Now all targets are up to date.

```r
tar_visnetwork()
```

<img src="./images/graph2.png" height="400px">

---

## Inspect the data

```r
tar_read(data_continuous, branches = 1) # see also tar_load()
#> # A tibble: 200 x 4
#>         x       y beta_true rep            
#>     <dbl>   <dbl>     <dbl> <chr>          
#>  1  0.446  1.37      -0.870 rep3841223f956f
#>  2  2.01  -0.361     -0.870 rep3841223f956f
#>  3  1.05  -0.183     -0.870 rep3841223f956f
#>  4  0.734 -0.891     -0.870 rep3841223f956f
#>  5  0.567  1.18      -0.870 rep3841223f956f
#>  6  1.30   0.306     -0.870 rep3841223f956f
#>  7  0.649  0.0242    -0.870 rep3841223f956f
#>  8  0.678  0.793     -0.870 rep3841223f956f
#>  9  1.05   0.688     -0.870 rep3841223f956f
#> 10 -0.437  2.25      -0.870 rep3841223f956f
#> # … with 190 more rows
```
…
